* * * * * * * * * * * * * * * * Reading complete, hit anykey to continue print ,,,,,,,
,,,,,,,,
Print Column in the following order: ,,,,,,,,
,,,,,,,,
Duty, PD0, PE1, PD2, PD3 ,,,,
,,,,,,,,
refV = 3920,,,,,,,,
0,2.94,3.69,1.75,5.5,,,,
1,38.81,39.56,0.75,5.06,,,sense offset,6.10039604
2,76.5,77.44,1.19,4.62,,,,
3,115.25,115.5,0.5,4.31,,,,
4,153.88,155.94,0.62,4.5,,,,
5,192.69,195.56,0.56,4.69,,,,
6,232.5,233.88,0.69,4.56,,,,
7,270.62,272.06,1.38,4.12,,,,
8,311.69,312.25,1.12,5.19,,,,
9,352,350.69,3.06,4.75,,,,
10,391.94,392.31,2.56,4.38,,,,
11,430.31,435.06,2.75,4.06,,,,
12,468.69,473.25,2.44,4.38,,,,
13,507.31,511.12,2.06,3.94,,,,
14,545.44,548.19,2.06,4.5,,,,
15,585.06,586.88,2.25,3.62,,,,
16,623.56,626.5,2.25,4.38,,,,
17,662.44,665.94,2.06,3.88,,,,
18,703,706,2,4.25,,,,
19,742.94,746.25,1.88,4.12,,,,
20,783.25,785.19,2.38,4.38,,,,
21,822.81,824.5,2.81,4.25,,,,
22,860.88,863.44,2.88,4,,,,
23,897.94,901,3.06,4.88,,,,
24,934.75,938.25,3.5,4.5,,,,
25,972,977.38,3.81,4.38,,,,
26,1013.56,1016.25,3.25,4.38,,,,
27,1054.06,1057.31,2.75,4.25,,,,
28,1095.81,1097.75,3.56,4.5,,,,
29,1135.62,1138.69,5.25,4.75,,,,
30,1175.62,1178.88,5.62,4.62,,,,
31,1216.19,1217.19,4.81,4.88,,,,
32,1253.69,1257.25,4.25,5.62,,,,
33,1291.12,1292.88,4.06,5,,,,
34,1327.5,1330.62,4.06,4.62,,,,
35,1366.62,1368.69,3.94,5,,,,
36,1411.31,1407.88,3.88,4.75,,,,
37,1449.88,1448.94,3.38,4.88,,,,
38,1488.81,1489.44,3.19,5.25,,,,
39,1528.69,1531,3.31,5.12,,,,
40,1569.31,1571.56,4.06,4.88,,,,
41,1608.25,1609.88,4.69,5.25,,,,
42,1646.88,1647.81,4,4.38,,,,
43,1683.5,1685.12,4.56,4.75,,,,
44,1720.88,1723.69,4.38,5,,,,
45,1759.62,1759.19,5.12,4.88,,,,
46,1798.19,1797.81,5.38,4.5,,,,
47,1839,1837.31,4.38,4.38,,,,
48,1880.38,1881.94,4.56,4.25,,,,
49,1921.81,1923.62,5,5,,,,
50,1962.69,1962.69,5.06,5,,,,
51,2001.75,2001.31,4.88,4.75,,,,
52,2041.25,2039.94,5.12,4.5,,,,
53,2077.38,2080.06,5.56,4.12,,,,
54,2115.5,2118.5,5.81,4.75,,,,
55,2152.94,2155.44,6.12,3.88,,,,
56,2190.38,2191.12,6.5,5,,,,
57,2231.75,2231.12,5.88,4.62,,,,
58,2271.75,2273.44,5.88,4,,,,
59,2313.94,2314,6.56,4.5,,,,
60,2354.12,2354.69,6.75,3.88,,,,
61,2391.31,2393.56,8,4.12,,,,
62,2428.81,2431.06,8.69,4.12,,,,
63,2465.25,2467.56,8.31,4,,,,
64,2502.81,2504.88,9,4,,,,
65,2544,2543.69,8.25,4.38,,,,
66,2581.88,2583.06,8.25,4.62,,,,
67,2622.62,2622.38,7.62,4.75,,,,
68,2663.06,2664.5,6.88,3.88,,,,
69,2703.88,2705.62,7.19,4.38,,,,
70,2743.94,2745.5,7.19,4.5,,,,
71,2781.5,2784.56,11.31,3.75,,,,
72,2820.38,2823.12,12.25,3.5,,,,
73,2857.56,2859.12,12.94,4.25,,,,
74,2895.19,2897,12.56,4.38,,,,
75,2936.5,2936.88,11.38,4.25,,,,
76,2974.12,2975.69,11,4.5,,,,
77,3014.38,3014.88,10.44,4.75,,,,
78,3054.94,3056.81,9.75,4.25,,,,
79,3095.69,3096.38,9.81,4.88,,,,
80,3134.5,3137.75,10,4.62,,,,
81,3173.5,3174.62,9.69,5.12,,,,
82,3213.06,3214.75,9.69,4.5,,,,
83,3250.94,3251.06,10.25,5.5,,,,
84,3289.5,3289.94,10.88,5.38,,,,
85,3326.75,3327.81,11.69,5,,,,
86,3365.31,3367.12,10.19,4.62,,,,
87,3406.31,3405.31,9.94,5.38,,,,
88,3445.5,3444.12,9.5,4.88,,,,
89,3486.31,3483.25,9.19,5.38,,,,
90,3525.06,3526.19,8.56,4.62,,,,
91,3564.44,3568.81,8.81,5.38,,,,
92,3602.88,3606,9.88,5,,,,
93,3642.94,3643.69,10.19,5.5,,,,
94,3681.81,3682.5,11.75,4.88,,,,
95,3721.88,3721.81,10.81,5.88,,,,
96,3759.06,3761.62,11.31,5.56,,,,
97,3799.81,3800.44,11.19,5.88,,,,
98,3839.12,3839.88,10.81,5.62,,,,
99,3876.81,3878.69,10.5,5.62,,,,
100,3895.94,3894,12.56,5.31,,,,
